,date,city,rent,product
0,2022-01-01,Antalya,13,1893
1,2022-01-02,Bursa,5,1523
2,2022-01-03,Bitlis,16,1696
3,2022-01-04,Kocaeli,13,1580
4,2022-01-05,Bursa,6,1889
5,2022-01-06,Kastamonu,9,1814
6,2022-01-07,Isparta,8,1773
7,2022-01-08,Samsun,2,1489
8,2022-01-09,Kayseri,8,1217
9,2022-01-10,Adıyaman,3,1183
10,2022-01-11,Ankara,13,1787
11,2022-01-12,Sivas,3,1473
12,2022-01-13,Tokat,2,1875
13,2022-01-14,Kayseri,13,1572
14,2022-01-15,Amasya,5,1439
15,2022-01-16,Sivas,10,1564
16,2022-01-17,İzmir,15,1626
17,2022-01-18,Trabzon,11,1495
18,2022-01-19,Rize,4,1799
19,2022-01-20,Niğde,11,1621
20,2022-01-21,Iğdır,1,1939
21,2022-01-22,Manisa,10,1199
22,2022-01-23,Tunceli,10,1637
23,2022-01-24,Giresun,3,1026
24,2022-01-25,Bilecik,8,1202
25,2022-01-26,Sinop,8,1317
26,2022-01-27,Uşak,16,1257
27,2022-01-28,Bartın,15,1765
28,2022-01-29,Erzincan,6,1477
29,2022-01-30,Kayseri,1,1258
30,2022-01-31,Ordu,13,1897
31,2022-02-01,Karabük,7,1828
32,2022-02-02,Konya,11,1663
33,2022-02-03,Aydın,2,1732
34,2022-02-04,Şanlıurfa,15,1215
35,2022-02-05,Şırnak,15,1894
36,2022-02-06,Konya,5,1401
37,2022-02-07,Yalova,12,1315
38,2022-02-08,Çankırı,6,1917
39,2022-02-09,Kayseri,11,1921
40,2022-02-10,Kahramanmaraş,8,1789
41,2022-02-11,Isparta,12,1313
42,2022-02-12,Kırşehir,7,1303
43,2022-02-13,Rize,10,1563
44,2022-02-14,Sinop,6,1203
45,2022-02-15,Karaman,16,1609
46,2022-02-16,Malatya,13,1313
47,2022-02-17,Isparta,3,1558
48,2022-02-18,Kocaeli,17,1597
49,2022-02-19,Hatay,13,1526
50,2022-02-20,Kilis,7,1712
51,2022-02-21,Batman,9,1811
52,2022-02-22,Kırşehir,15,1962
53,2022-02-23,İçel (Mersin),11,1952
54,2022-02-24,Konya,16,1519
55,2022-02-25,Çorum,9,1369
56,2022-02-26,Van,15,1076
57,2022-02-27,Eskişehir,1,1440
58,2022-02-28,Denizli,8,1237
59,2022-03-01,Ağrı,10,1975
60,2022-03-02,Kırşehir,2,1540
61,2022-03-03,Niğde,2,1178
62,2022-03-04,Uşak,2,1537
63,2022-03-05,Isparta,5,1275
64,2022-03-06,Diyarbakır,5,1838
65,2022-03-07,Aydın,12,1109
66,2022-03-08,Rize,13,1381
67,2022-03-09,Bitlis,7,1326
68,2022-03-10,Siirt,3,1294
69,2022-03-11,Yalova,12,1423
70,2022-03-12,Bayburt,15,1542
71,2022-03-13,Ağrı,8,1004
72,2022-03-14,Nevşehir,5,1355
73,2022-03-15,Muş,9,1381
74,2022-03-16,İçel (Mersin),2,1179
75,2022-03-17,Ordu,4,1334
76,2022-03-18,Kayseri,9,1114
77,2022-03-19,Sinop,1,1772
78,2022-03-20,Antalya,7,1648
79,2022-03-21,Elazığ,12,1596
80,2022-03-22,Manisa,2,1061
81,2022-03-23,Çankırı,10,1820
82,2022-03-24,Denizli,1,1432
83,2022-03-25,Afyon,10,1417
84,2022-03-26,Batman,15,1809
85,2022-03-27,Elazığ,16,1732
86,2022-03-28,Tokat,9,1875
87,2022-03-29,Gümüşhane,4,1089
88,2022-03-30,Trabzon,15,1703
89,2022-03-31,Bursa,1,1823
90,2022-04-01,Bayburt,17,1366
91,2022-04-02,Elazığ,1,1376
92,2022-04-03,Adıyaman,16,1108
93,2022-04-04,Sinop,1,1767
94,2022-04-05,Ordu,15,1459
95,2022-04-06,Kırşehir,16,1207
96,2022-04-07,Ardahan,5,1952
97,2022-04-08,Aksaray,5,1823
98,2022-04-09,Hatay,4,1205
99,2022-04-10,Bursa,15,1969
100,2022-04-11,Osmaniye,16,1557
101,2022-04-12,Hatay,8,1647
102,2022-04-13,Tokat,3,1785
103,2022-04-14,Karaman,15,1337
104,2022-04-15,Tekirdağ,2,1561
105,2022-04-16,Muğla,3,1604
106,2022-04-17,Çankırı,17,1963
107,2022-04-18,Bayburt,17,1264
108,2022-04-19,Sinop,11,1740
109,2022-04-20,Elazığ,9,1870
110,2022-04-21,Osmaniye,9,1855
111,2022-04-22,Konya,17,1986
112,2022-04-23,İstanbul,17,1810
113,2022-04-24,Kastamonu,3,1709
114,2022-04-25,Afyon,10,1102
115,2022-04-26,Giresun,1,1335
116,2022-04-27,Çanakkale,9,1386
117,2022-04-28,Uşak,9,1390
118,2022-04-29,Bolu,10,1068
119,2022-04-30,Karabük,11,1964
120,2022-05-01,Kahramanmaraş,4,1634
121,2022-05-02,Siirt,10,1895
122,2022-05-03,Rize,3,1510
123,2022-05-04,İçel (Mersin),4,1314
124,2022-05-05,Tunceli,17,1980
125,2022-05-06,Ordu,4,1895
126,2022-05-07,Bolu,6,1598
127,2022-05-08,Adıyaman,9,1375
128,2022-05-09,Kilis,10,1511
129,2022-05-10,Eskişehir,7,1248
130,2022-05-11,Kastamonu,16,1982
131,2022-05-12,Kastamonu,13,1886
132,2022-05-13,Karaman,3,1033
133,2022-05-14,İzmir,4,1924
134,2022-05-15,Kahramanmaraş,5,1094
135,2022-05-16,Gümüşhane,16,1203
136,2022-05-17,Mardin,1,1131
137,2022-05-18,Kocaeli,6,1206
138,2022-05-19,Kahramanmaraş,13,1745
139,2022-05-20,İstanbul,10,1772
140,2022-05-21,Ağrı,14,1854
141,2022-05-22,Samsun,4,1166
142,2022-05-23,Şırnak,5,1768
143,2022-05-24,Kahramanmaraş,17,1887
144,2022-05-25,Tokat,7,1252
145,2022-05-26,Edirne,13,1492
146,2022-05-27,Nevşehir,9,1568
147,2022-05-28,Bitlis,1,1729
148,2022-05-29,Samsun,11,1893
149,2022-05-30,Sinop,12,1434
150,2022-05-31,Ardahan,9,1382
151,2022-06-01,Bitlis,15,1005
152,2022-06-02,Ordu,16,1698
153,2022-06-03,Batman,2,1877
154,2022-06-04,Manisa,1,1628
155,2022-06-05,Adana,2,1394
156,2022-06-06,Elazığ,5,1760
157,2022-06-07,Sakarya,12,1910
158,2022-06-08,Sinop,17,1149
159,2022-06-09,Nevşehir,5,1334
160,2022-06-10,Yozgat,13,1481
161,2022-06-11,Manisa,8,1598
162,2022-06-12,Sakarya,3,1230
163,2022-06-13,Aksaray,3,1759
164,2022-06-14,Bayburt,11,1810
165,2022-06-15,Bingöl,3,1380
166,2022-06-16,Uşak,4,1270
167,2022-06-17,Tokat,9,1129
168,2022-06-18,Karaman,1,1241
169,2022-06-19,Batman,13,1571
170,2022-06-20,Mardin,3,1019
171,2022-06-21,İçel (Mersin),2,1882
172,2022-06-22,Sinop,12,1919
173,2022-06-23,Ağrı,11,1312
174,2022-06-24,Kocaeli,4,1327
175,2022-06-25,Antalya,13,1568
176,2022-06-26,Diyarbakır,16,1491
177,2022-06-27,Iğdır,8,1133
178,2022-06-28,Adana,10,1845
179,2022-06-29,Kütahya,4,1323
180,2022-06-30,Aydın,6,1427
181,2022-07-01,Ağrı,9,1352
182,2022-07-02,Zonguldak,16,1255
183,2022-07-03,Kahramanmaraş,16,1358
184,2022-07-04,Kocaeli,11,1910
185,2022-07-05,İstanbul,17,1801
186,2022-07-06,Kocaeli,11,1130
187,2022-07-07,Edirne,3,1264
188,2022-07-08,Muş,12,1755
189,2022-07-09,Edirne,13,1842
190,2022-07-10,Van,7,1515
191,2022-07-11,Artvin,7,1028
192,2022-07-12,Tekirdağ,3,1986
193,2022-07-13,Rize,15,1765
194,2022-07-14,Aydın,2,1462
195,2022-07-15,Burdur,11,1744
196,2022-07-16,Yozgat,15,1547
197,2022-07-17,Balıkesir,10,1832
198,2022-07-18,Tokat,1,1911
199,2022-07-19,Erzurum,9,1550
200,2022-07-20,Mardin,9,1493
201,2022-07-21,Elazığ,15,1674
202,2022-07-22,Sivas,1,1071
203,2022-07-23,İçel (Mersin),10,1187
204,2022-07-24,Sivas,16,1863
205,2022-07-25,Malatya,7,1324
206,2022-07-26,Kırıkkale,5,1066
207,2022-07-27,Bilecik,6,1269
208,2022-07-28,İçel (Mersin),17,1026
209,2022-07-29,Giresun,15,1151
210,2022-07-30,Karabük,15,1299
211,2022-07-31,Kütahya,4,1163
212,2022-08-01,Bartın,15,1735
213,2022-08-02,Balıkesir,5,1586
214,2022-08-03,Artvin,3,1244
215,2022-08-04,Düzce,13,1984
216,2022-08-05,Sinop,12,1524
217,2022-08-06,İçel (Mersin),8,1978
218,2022-08-07,Erzurum,13,1342
219,2022-08-08,Giresun,1,1331
220,2022-08-09,Niğde,10,1237
221,2022-08-10,Ağrı,3,1839
222,2022-08-11,Yozgat,12,1321
223,2022-08-12,Osmaniye,14,1790
224,2022-08-13,Isparta,8,1402
225,2022-08-14,Çanakkale,8,1664
226,2022-08-15,Hatay,4,1455
227,2022-08-16,İstanbul,4,1808
228,2022-08-17,Mardin,9,1239
229,2022-08-18,Trabzon,16,1884
230,2022-08-19,Zonguldak,10,1093
231,2022-08-20,Kars,4,1547
232,2022-08-21,Hatay,15,1042
233,2022-08-22,Isparta,16,1182
234,2022-08-23,Şanlıurfa,14,1261
235,2022-08-24,Van,12,1830
236,2022-08-25,Şırnak,15,1065
237,2022-08-26,Sakarya,11,1501
238,2022-08-27,Burdur,12,1386
239,2022-08-28,Edirne,9,1692
240,2022-08-29,Erzurum,2,1097
241,2022-08-30,Kırklareli,11,1917
242,2022-08-31,Bingöl,16,1730
243,2022-09-01,Zonguldak,14,1625
244,2022-09-02,Siirt,10,1888
245,2022-09-03,Aydın,16,1468
246,2022-09-04,Erzurum,4,1071
247,2022-09-05,Kahramanmaraş,7,1412
248,2022-09-06,Bayburt,16,1721
249,2022-09-07,Manisa,10,1741
250,2022-09-08,Samsun,3,1383
251,2022-09-09,Muğla,14,1280
252,2022-09-10,Ağrı,17,1455
253,2022-09-11,Bingöl,13,1341
254,2022-09-12,Gümüşhane,7,1437
255,2022-09-13,Yozgat,13,1501
256,2022-09-14,Muğla,15,1778
257,2022-09-15,Tekirdağ,2,1714
258,2022-09-16,Gaziantep,12,1287
259,2022-09-17,Sinop,1,1500
260,2022-09-18,Antalya,12,1166
261,2022-09-19,Şırnak,5,1781
262,2022-09-20,İstanbul,6,1108
263,2022-09-21,Diyarbakır,3,1158
264,2022-09-22,Bayburt,15,1269
265,2022-09-23,Ağrı,7,1666
266,2022-09-24,Isparta,12,1308
267,2022-09-25,Kırıkkale,16,1266
268,2022-09-26,Kahramanmaraş,6,1823
269,2022-09-27,Malatya,3,1121
270,2022-09-28,Kocaeli,1,1655
271,2022-09-29,Kahramanmaraş,16,1211
272,2022-09-30,Tunceli,5,1683
273,2022-10-01,Balıkesir,6,1635
274,2022-10-02,Gümüşhane,4,1322
275,2022-10-03,İstanbul,11,1256
276,2022-10-04,Edirne,9,1952
277,2022-10-05,Gümüşhane,8,1261
278,2022-10-06,Konya,4,1902
279,2022-10-07,İstanbul,5,1090
280,2022-10-08,Tunceli,13,1397
281,2022-10-09,Tekirdağ,4,1606
282,2022-10-10,Kırklareli,10,1197
283,2022-10-11,Karabük,13,1920
284,2022-10-12,Kastamonu,13,1493
285,2022-10-13,Afyon,2,1100
286,2022-10-14,Bitlis,8,1921
287,2022-10-15,Batman,1,1594
288,2022-10-16,Kastamonu,10,1202
289,2022-10-17,Bursa,5,1552
290,2022-10-18,Tekirdağ,12,1491
291,2022-10-19,Sivas,4,1517
292,2022-10-20,Erzurum,6,1114
293,2022-10-21,Giresun,12,1400
294,2022-10-22,Trabzon,12,1336
295,2022-10-23,Şanlıurfa,7,1105
296,2022-10-24,Sivas,3,1205
297,2022-10-25,Burdur,11,1741
298,2022-10-26,Rize,16,1406
299,2022-10-27,Yalova,14,1655
300,2022-10-28,Sakarya,15,1264
301,2022-10-29,Kayseri,10,1351
302,2022-10-30,Sinop,1,1714
303,2022-10-31,Karabük,15,1322
304,2022-11-01,Şanlıurfa,15,1274
305,2022-11-02,Eskişehir,4,1269
306,2022-11-03,Nevşehir,3,1049
307,2022-11-04,Siirt,5,1112
308,2022-11-05,Amasya,8,1966
309,2022-11-06,Kütahya,13,1645
310,2022-11-07,Kütahya,3,1024
311,2022-11-08,Sivas,3,1031
312,2022-11-09,Gaziantep,9,1726
313,2022-11-10,Tokat,14,1353
314,2022-11-11,Sivas,1,1340
315,2022-11-12,Hatay,16,1692
316,2022-11-13,Afyon,11,1004
317,2022-11-14,Amasya,8,1704
318,2022-11-15,Şırnak,13,1840
319,2022-11-16,Yozgat,3,1933
320,2022-11-17,Samsun,14,1944
321,2022-11-18,Kahramanmaraş,16,1409
322,2022-11-19,Adıyaman,6,1645
323,2022-11-20,Kilis,2,1807
324,2022-11-21,Giresun,7,1913
325,2022-11-22,Eskişehir,12,1538
326,2022-11-23,Kırıkkale,17,1157
327,2022-11-24,Karaman,9,1893
328,2022-11-25,Samsun,5,1129
329,2022-11-26,Çankırı,2,1918
330,2022-11-27,Sinop,8,1342
331,2022-11-28,Çankırı,1,1396
332,2022-11-29,Yozgat,11,1297
333,2022-11-30,Bartın,16,1919
334,2022-12-01,Aksaray,1,1339
335,2022-12-02,Şanlıurfa,9,1482
336,2022-12-03,İzmir,3,1151
337,2022-12-04,Denizli,14,1880
338,2022-12-05,Karaman,6,1133
339,2022-12-06,Kütahya,7,1588
340,2022-12-07,Sinop,16,1485
341,2022-12-08,Artvin,7,1487
342,2022-12-09,Gaziantep,3,1230
343,2022-12-10,Artvin,15,1855
344,2022-12-11,Sakarya,15,1277
345,2022-12-12,Isparta,16,1888
346,2022-12-13,Çanakkale,4,1073
347,2022-12-14,Şanlıurfa,17,1588
348,2022-12-15,Diyarbakır,6,1710
349,2022-12-16,Tokat,10,1270
350,2022-12-17,İzmir,13,1478
351,2022-12-18,Kütahya,5,1153
352,2022-12-19,Kocaeli,11,1033
353,2022-12-20,Bolu,10,1255
354,2022-12-21,Tekirdağ,14,1567
355,2022-12-22,Karaman,10,1393
356,2022-12-23,Adıyaman,5,1224
357,2022-12-24,Erzincan,11,1186
358,2022-12-25,Yozgat,9,1508
359,2022-12-26,Burdur,16,1595
360,2022-12-27,Bilecik,2,1909
361,2022-12-28,Gümüşhane,11,1746
362,2022-12-29,Konya,1,1755
363,2022-12-30,Bartın,12,1939
